911421 259989
6533 628930
221758 817270
238062 528805
963916 312087
132227 905886
472066 416884
831798 88311
184088 352423
238590 953131
375606 402554
513417 823813
232144 98165
60499 862381
354483 73057
295209 387703
74866 360213
921488 79698
429783 473217
182151 449248
282296 238689
899480 553405
509041 334783
56203 702999
47515 910220
546217 423007
445757 366212
625456 127287
448984 295493
546160 282435
31553 885631
361866 505017
435807 815683
978004 571758
196459 959762
791998 942840
800427 434439
928919 375671
182680 888291
965055 179637
82470 468173
775661 30644
956315 796651
432881 729091
200410 205814
252808 437024
817233 379123
961740 362693
895156 387465
335178 897161
124998 836368
272281 731109
653707 187894
70404 748053
202402 209114
783881 897852
569359 593267
529089 258119
174224 208936
59781 614571
426793 401144
280879 85822
324105 229765
74111 683800
842064 44500
794799 168836
921112 371854
807206 348113
329603 572129
724433 212487
809504 317476
408437 908925
64905 605826
999876 745347
525440 814501
590962 763565
486505 898143
544003 574775
567729 991003
291246 62321
149444 568272
803639 658671
833193 53560
799561 209047
549937 136038
355748 49791
609276 750653
497822 868313
887869 92659
402031 191868
436996 60173
940489 460234
322398 173946
326221 532961
953734 445889
261193 192193
663053 637213
275740 867055
588284 957628
899537 365279
465424 388684
651057 477328
883641 725340
118236 368067
271295 779473
840936 400723
260109 561409
232428 428192
271283 695320
670131 539192
245683 340951
39123 916715
546675 929578
244622 363265
79728 192757
479343 521039
479898 99655
777182 115606
702096 857878
666881 802222
332412 278657
73062 592552
798653 214684
125864 132462
816890 60282
126622 628285
800244 793840
963681 172824
974946 580363
552397 883323
473044 312314
220777 765182
954535 966008
430683 588247
309348 953436
746220 169612
680373 299619
565809 417392
492571 797060
467272 711005
853699 921123
302613 526391
421373 88938
956799 23375
233568 81972
291178 961278
16023 886325
590442 358486
723637 602430
880398 636442
131372 722690
944460 502800
344720 966195
870534 756416
464454 231933
572481 239199
382663 39670
303430 907075
588281 21574
242948 888041
298487 123760
851355 797744
512416 175915
415405 566844
892381 601203
666632 667960
711476 730893
118357 864158
366393 440825
779483 515473
930671 632910
947733 206170
354874 848258
988349 434180
222030 101394
992465 867694
530683 653224
958880 776789
408406 271843
56895 294604
414429 799139
843908 620209
682993 664669
190170 821430
95245 472718
371538 964782
494147 853771
462723 415756
139405 814757
523582 542870
466111 294567
140772 541323
214210 223222
364568 256470
776100 873727
642054 866447
676448 759296
644513 484072
376633 766054
634274 333046
823418 53529
612535 523713
411517 784857
944401 229628
471157 384064
747308 645226
342299 564165
293397 688586
589003 297772
304191 321350
714946 915945
533849 779166
32732 552336
291417 444878
665541 306992
187848 999328
610995 188401
479630 427269
453050 375077
206717 78594
752595 43807
855574 998323
372390 334226
554868 938069
94965 798297
609996 331778
630326 576238
485566 258210
790411 199160
424275 193257
193866 718241
29875 253925
773483 467179
2424 133699
2190 808388
35336 943423
198058 87820
412253 853016
146897 195659
46638 523601
373649 653921
709775 10405
9669 586540
869669 645989
497866 745407
952567 430377
300560 127358
963677 460329
653980 895617
112545 631384
927239 303692
940013 852938
962252 698367
11334 411218
246660 81408
835553 802521
293278 989668
379698 791074
218371 418889
892359 237557
892103 518857
298023 928702
410462 971934
317876 508530
663018 954738
